...[mcl] new tab created
[mcl] pid 60425
 ite -------------------  chaos  time hom(avg,lo,hi) expa expb expc fmv
  1  ...................   0.20  0.06 1.04/0.98/1.14 1.00 1.00 1.00 100
  2  ...................   0.45  0.06 0.82/0.81/0.85 1.00 1.00 1.00 100
  3  ...................   1.04  0.05 0.65/0.65/0.65 1.00 1.00 1.00 100
  4  ...................   1.40  0.05 0.61/0.61/0.61 1.00 0.58 0.58 100
  5  ...................   1.72  0.03 0.59/0.59/0.59 1.00 0.51 0.30 100
  6  ...................   1.87  0.01 0.58/0.58/0.58 1.00 0.49 0.14 100
  7  ...................   1.32  0.00 0.61/0.61/0.61 1.00 0.44 0.06 100
  8  ...................   0.18  0.00 0.88/0.88/0.88 1.00 0.37 0.02 100
  9  ...................   0.00  0.00 1.00/1.00/1.00 1.00 0.67 0.02 100
 10  ...................   0.00  0.01 1.00/1.00/1.00 1.00 0.50 0.01   0
[mcl] jury pruning marks: <100,100,100>, out of 100
[mcl] jury pruning synopsis: <100.0 or really really really good> (cf -scheme, -do log)
[mcl] output is in /local/wiwie/ClustEval/repository/results/04_07_2013-14_41_00_paper_run_synthetic/clusters/MCL_norm_synthetic_spirals250.61.results
[mcl] 1 clusters found
[mcl] output is in /local/wiwie/ClustEval/repository/results/04_07_2013-14_41_00_paper_run_synthetic/clusters/MCL_norm_synthetic_spirals250.61.results

Please cite:
    Stijn van Dongen, Graph Clustering by Flow Simulation.  PhD thesis,
    University of Utrecht, May 2000.
       (  http://www.library.uu.nl/digiarchief/dip/diss/1895620/full.pdf
       or  http://micans.org/mcl/lit/svdthesis.pdf.gz)
OR
    Stijn van Dongen, A cluster algorithm for graphs. Technical
    Report INS-R0010, National Research Institute for Mathematics
    and Computer Science in the Netherlands, Amsterdam, May 2000.
       (  http://www.cwi.nl/ftp/CWIreports/INS/INS-R0010.ps.Z
       or  http://micans.org/mcl/lit/INS-R0010.ps.Z)

