...[mcl] new tab created
[mcl] pid 34088
 ite -------------------  chaos  time hom(avg,lo,hi) expa expb expc fmv
  1  ...................   0.20  0.08 1.04/0.98/1.14 1.00 1.00 1.00 100
  2  ...................   0.17  0.05 0.96/0.95/0.97 1.00 1.00 1.00 100
  3  ...................   0.18  0.06 0.95/0.95/0.95 1.00 1.00 1.00 100
  4  ...................   0.20  0.06 0.94/0.94/0.94 1.00 1.00 1.00 100
  5  ...................   0.22  0.05 0.93/0.93/0.93 1.00 1.00 1.00 100
  6  ...................   0.24  0.05 0.91/0.91/0.91 1.00 1.00 1.00 100
  7  ...................   0.26  0.04 0.90/0.90/0.90 1.00 1.00 1.00 100
  8  ...................   0.28  0.05 0.89/0.89/0.89 1.00 1.00 1.00 100
  9  ...................   0.31  0.05 0.87/0.87/0.87 1.00 1.00 1.00 100
 10  ...................   0.33  0.05 0.86/0.86/0.86 1.00 1.00 1.00 100
 11  ...................   0.36  0.05 0.84/0.84/0.84 1.00 1.00 1.00 100
 12  ...................   0.39  0.07 0.82/0.82/0.82 1.00 1.00 1.00 100
 13  ...................   0.43  0.05 0.80/0.80/0.80 1.00 1.00 1.00 100
 14  ...................   0.46  0.05 0.79/0.79/0.79 1.00 1.00 1.00 100
 15  ...................   0.50  0.05 0.77/0.77/0.77 1.00 1.00 1.00 100
 16  ...................   0.54  0.05 0.75/0.75/0.75 1.00 1.00 1.00 100
 17  ...................   0.58  0.08 0.73/0.73/0.73 1.00 1.00 1.00 100
 18  ...................   0.63  0.05 0.72/0.72/0.72 1.00 1.00 1.00 100
 19  ...................   0.67  0.08 0.71/0.71/0.71 1.00 1.00 1.00 100
 20  ...................   0.72  0.05 0.69/0.69/0.69 1.00 1.00 1.00 100
 21  ...................   0.78  0.05 0.68/0.68/0.68 1.00 1.00 1.00 100
 22  ...................   0.83  0.05 0.67/0.67/0.67 1.00 1.00 1.00 100
 23  ...................   0.90  0.05 0.66/0.66/0.66 1.00 1.00 1.00 100
 24  ...................   0.96  0.05 0.66/0.66/0.66 1.00 1.00 1.00 100
 25  ...................   1.03  0.08 0.65/0.65/0.65 1.00 1.00 1.00 100
 26  ...................   1.10  0.05 0.65/0.65/0.65 1.00 1.00 1.00 100
 27  ...................   1.15  0.05 0.64/0.64/0.64 1.00 0.97 0.97 100
 28  ...................   1.17  0.04 0.64/0.64/0.64 1.00 0.95 0.92 100
 29  ...................   1.19  0.07 0.64/0.64/0.64 1.00 0.95 0.87 100
 30  ...................   1.20  0.04 0.63/0.63/0.63 1.00 0.94 0.82 100
 31  ...................   1.23  0.05 0.63/0.63/0.63 1.00 0.95 0.78 100
 32  ...................   1.26  0.05 0.63/0.63/0.63 1.00 0.96 0.75 100
 33  ...................   1.30  0.03 0.62/0.62/0.62 1.00 0.96 0.72 100
 34  ...................   1.33  0.03 0.62/0.62/0.62 1.00 0.96 0.69 100
 35  ...................   1.36  0.03 0.62/0.62/0.62 1.00 0.95 0.66 100
 36  ...................   1.37  0.05 0.62/0.62/0.62 1.00 0.94 0.62 100
 37  ...................   1.40  0.03 0.61/0.61/0.61 1.00 0.95 0.58 100
 38  ...................   1.42  0.02 0.61/0.61/0.61 1.00 0.95 0.55 100
 39  ...................   1.46  0.02 0.61/0.61/0.61 1.00 0.96 0.53 100
 40  ...................   1.50  0.02 0.61/0.61/0.61 1.00 0.95 0.50 100
 41  ...................   1.53  0.02 0.60/0.60/0.60 1.00 0.95 0.48 100
 42  ...................   1.56  0.02 0.60/0.60/0.60 1.00 0.95 0.46 100
 43  ...................   1.59  0.02 0.60/0.60/0.60 1.00 0.95 0.43 100
 44  ...................   1.61  0.01 0.60/0.60/0.60 1.00 0.94 0.41 100
 45  ...................   1.63  0.01 0.60/0.60/0.60 1.00 0.94 0.38 100
 46  ...................   1.64  0.02 0.60/0.60/0.60 1.00 0.94 0.36 100
 47  ...................   1.65  0.02 0.59/0.59/0.59 1.00 0.93 0.34 100
 48  ...................   1.68  0.02 0.59/0.59/0.59 1.00 0.95 0.32 100
 49  ...................   1.72  0.01 0.59/0.59/0.59 1.00 0.95 0.30 100
 50  ...................   1.70  0.00 0.59/0.59/0.59 1.00 0.92 0.28 100
 51  ...................   1.72  0.00 0.59/0.59/0.59 1.00 0.94 0.26 100
 52  ...................   1.78  0.00 0.59/0.59/0.59 1.00 0.97 0.26 100
 53  ...................   1.79  0.00 0.59/0.59/0.59 1.00 0.94 0.24 100
 54  ...................   1.79  0.00 0.58/0.58/0.58 1.00 0.93 0.22 100
 55  ...................   1.78  0.01 0.58/0.58/0.58 1.00 0.93 0.21 100
 56  ...................   1.83  0.01 0.58/0.58/0.58 1.00 0.96 0.20 100
 57  ...................   1.80  0.01 0.58/0.58/0.58 1.00 0.92 0.18 100
 58  ...................   1.83  0.00 0.58/0.58/0.58 1.00 0.96 0.18 100
 59  ...................   1.87  0.02 0.58/0.58/0.58 1.00 0.95 0.17 100
 60  ...................   1.80  0.00 0.58/0.58/0.58 1.00 0.90 0.15 100
 61  ...................   1.81  0.01 0.58/0.58/0.58 1.00 0.95 0.14 100
 62  ...................   1.81  0.00 0.58/0.58/0.58 1.00 0.94 0.14 100
 63  ...................   1.81  0.01 0.58/0.58/0.58 1.00 0.94 0.13 100
 64  ...................   1.79  0.00 0.57/0.57/0.57 1.00 0.94 0.12 100
 65  ...................   1.76  0.00 0.58/0.58/0.58 1.00 0.93 0.11 100
 66  ...................   1.72  0.01 0.58/0.58/0.58 1.00 0.93 0.10 100
 67  ...................   1.66  0.00 0.58/0.58/0.58 1.00 0.92 0.10 100
 68  ...................   1.58  0.01 0.58/0.58/0.58 1.00 0.92 0.09 100
 69  ...................   1.64  0.00 0.58/0.58/0.58 1.00 1.00 0.09 100
 70  ...................   1.54  0.00 0.58/0.58/0.58 1.00 0.91 0.08 100
 71  ...................   1.43  0.00 0.59/0.59/0.59 1.00 0.90 0.07 100
 72  ...................   1.46  0.01 0.60/0.60/0.60 1.00 1.00 0.07 100
 73  ...................   1.31  0.00 0.60/0.60/0.60 1.00 0.89 0.06 100
 74  ...................   1.32  0.00 0.61/0.61/0.61 1.00 1.00 0.06 100
 75  ...................   1.15  0.00 0.62/0.62/0.62 1.00 0.87 0.06 100
 76  ...................   1.14  0.00 0.64/0.64/0.64 1.00 1.00 0.06 100
 77  ...................   0.95  0.01 0.65/0.65/0.65 1.00 0.86 0.05 100
 78  ...................   0.92  0.00 0.67/0.67/0.67 1.00 1.00 0.05 100
 79  ...................   0.73  0.01 0.69/0.69/0.69 1.00 0.83 0.04 100
 80  ...................   0.68  0.00 0.72/0.72/0.72 1.00 1.00 0.04 100
 81  ...................   0.62  0.00 0.74/0.74/0.74 1.00 1.00 0.04 100
 82  ...................   0.45  0.00 0.77/0.77/0.77 1.00 0.80 0.03 100
 83  ...................   0.40  0.00 0.80/0.80/0.80 1.00 1.00 0.03 100
 84  ...................   0.34  0.00 0.83/0.83/0.83 1.00 1.00 0.03 100
 85  ...................   0.29  0.00 0.86/0.86/0.86 1.00 1.00 0.03 100
 86  ...................   0.18  0.00 0.88/0.88/0.88 1.00 0.75 0.02 100
 87  ...................   0.14  0.00 0.91/0.91/0.91 1.00 1.00 0.02 100
 88  ...................   0.11  0.00 0.93/0.93/0.93 1.00 1.00 0.02 100
 89  ...................   0.08  0.00 0.95/0.95/0.95 1.00 1.00 0.02 100
 90  ...................   0.06  0.00 0.96/0.96/0.96 1.00 1.00 0.02 100
 91  ...................   0.03  0.00 0.97/0.97/0.97 1.00 0.67 0.02 100
 92  ...................   0.02  0.00 0.98/0.98/0.98 1.00 1.00 0.02   0
 93  ...................   0.01  0.00 0.99/0.99/0.99 1.00 1.00 0.02   0
 94  ...................   0.01  0.00 0.99/0.99/0.99 1.00 1.00 0.02   0
 95  ...................   0.00  0.00 1.00/1.00/1.00 1.00 1.00 0.02   0
 96  ...................   0.00  0.00 1.00/1.00/1.00 1.00 1.00 0.02   0
 97  ...................   0.00  0.00 1.00/1.00/1.00 1.00 1.00 0.02   0
 98  ...................   0.00  0.00 1.00/1.00/1.00 1.00 1.00 0.02   0
 99  ...................   0.00  0.00 1.00/1.00/1.00 1.00 0.50 0.01   0
[mcl] jury pruning marks: <100,100,100>, out of 100
[mcl] jury pruning synopsis: <100.0 or really really really good> (cf -scheme, -do log)
[mcl] output is in /local/wiwie/ClustEval/repository/results/04_07_2013-14_41_00_paper_run_synthetic/clusters/MCL_norm_synthetic_spirals250.449.results
[mcl] 1 clusters found
[mcl] output is in /local/wiwie/ClustEval/repository/results/04_07_2013-14_41_00_paper_run_synthetic/clusters/MCL_norm_synthetic_spirals250.449.results

Please cite:
    Stijn van Dongen, Graph Clustering by Flow Simulation.  PhD thesis,
    University of Utrecht, May 2000.
       (  http://www.library.uu.nl/digiarchief/dip/diss/1895620/full.pdf
       or  http://micans.org/mcl/lit/svdthesis.pdf.gz)
OR
    Stijn van Dongen, A cluster algorithm for graphs. Technical
    Report INS-R0010, National Research Institute for Mathematics
    and Computer Science in the Netherlands, Amsterdam, May 2000.
       (  http://www.cwi.nl/ftp/CWIreports/INS/INS-R0010.ps.Z
       or  http://micans.org/mcl/lit/INS-R0010.ps.Z)

