-----------------------------------
Running ... TransClust v1.0
Sun Apr 07 18:08:58 CEST 2013
-----------------------------------

Clustering Mode: cluster iterativ

Threshold range: 1.2048985809087754E-11 to 1.2048985809087754E-11
Stepsize: 0.01

calculating clusters for threshold 1.2048985809087754E-11

fmeasure: 0.6666666666666666
cluster distribution: 250:1, 

