-----------------------------------
Running ... TransClust v1.0
Sun Apr 07 19:38:01 CEST 2013
-----------------------------------

Clustering Mode: cluster iterativ

Threshold range: 1.9460239871151436E-18 to 1.9460239871151436E-18
Stepsize: 0.01

calculating clusters for threshold 1.9460239871151436E-18

fmeasure: 0.6666666666666666
cluster distribution: 250:1, 

