-----------------------------------
Running ... TransClust v1.0
Sun Apr 07 16:31:15 CEST 2013
-----------------------------------

Clustering Mode: cluster iterativ

Threshold range: 1.0188933341733872E-5 to 1.0188933341733872E-5
Stepsize: 0.01

calculating clusters for threshold 1.0188933341733872E-5

fmeasure: 0.6666666666666666
cluster distribution: 250:1, 

