-----------------------------------
Running ... TransClust v1.0
Sun Apr 07 19:34:53 CEST 2013
-----------------------------------

Clustering Mode: cluster iterativ

Threshold range: 8.340102801922043E-19 to 8.340102801922043E-19
Stepsize: 0.01

calculating clusters for threshold 8.340102801922043E-19

fmeasure: 0.6666666666666666
cluster distribution: 250:1, 

