-----------------------------------
Running ... TransClust v1.0
Sun Apr 07 18:36:04 CEST 2013
-----------------------------------

Clustering Mode: cluster iterativ

Threshold range: 1.062788566829817E-14 to 1.062788566829817E-14
Stepsize: 0.01

calculating clusters for threshold 1.062788566829817E-14

fmeasure: 0.6666666666666666
cluster distribution: 250:1, 

