-----------------------------------
Running ... TransClust v1.0
Sun Apr 07 19:00:01 CEST 2013
-----------------------------------

Clustering Mode: cluster iterativ

Threshold range: 7.11688772430681E-17 to 7.11688772430681E-17
Stepsize: 0.01

calculating clusters for threshold 7.11688772430681E-17

fmeasure: 0.6666666666666666
cluster distribution: 250:1, 

