-----------------------------------
Running ... TransClust v1.0
Sun Apr 07 16:28:13 CEST 2013
-----------------------------------

Clustering Mode: cluster iterativ

Threshold range: 6.113360005040323E-6 to 6.113360005040323E-6
Stepsize: 0.01

calculating clusters for threshold 6.113360005040323E-6

fmeasure: 0.6666666666666666
cluster distribution: 250:1, 

