-----------------------------------
Running ... TransClust v1.0
Sun Apr 07 16:13:09 CEST 2013
-----------------------------------

Clustering Mode: cluster iterativ

Threshold range: 1.6302293346774194E-6 to 1.6302293346774194E-6
Stepsize: 0.01

calculating clusters for threshold 1.6302293346774194E-6

fmeasure: 0.6666666666666666
cluster distribution: 250:1, 

