-----------------------------------
Running ... TransClust v1.0
Sun Apr 07 17:59:31 CEST 2013
-----------------------------------

Clustering Mode: cluster iterativ

Threshold range: 4.5086527543683206E-11 to 4.5086527543683206E-11
Stepsize: 0.01

calculating clusters for threshold 4.5086527543683206E-11

fmeasure: 0.6666666666666666
cluster distribution: 250:1, 

