-----------------------------------
Running ... TransClust v1.0
Sat Apr 20 17:48:39 CEST 2013
-----------------------------------

Clustering Mode: cluster iterativ

Threshold range: 38.60761086413101 to 38.60761086413101
Stepsize: 0.01

calculating clusters for threshold 38.60761086413101

fmeasure: 0.9725233365460128
cluster distribution: 100:1, 28:1, 13:2, 11:1, 10:1, 9:1, 7:2, 5:1, 4:2, 3:3, 2:3, 1:6, 

