-----------------------------------
Running ... TransClust v1.0
Sat Apr 20 18:56:48 CEST 2013
-----------------------------------

Clustering Mode: cluster iterativ

Threshold range: 40.35020225016158 to 40.35020225016158
Stepsize: 0.01

calculating clusters for threshold 40.35020225016158

fmeasure: 0.9769568340829585
cluster distribution: 100:1, 28:1, 13:2, 11:1, 10:1, 9:1, 7:2, 5:1, 4:1, 3:4, 2:3, 1:7, 

