Press 'q' to abort ...
[?1049h[1;24r(B[m[4l[?7h[H[2J
[24;1H[?1049l
[?1l>[?1049h[1;24r(B[m[4l[?7h[H[2J

[24;1H[?1049l
[?1l>[?1049h[1;24r(B[m[4l[?7h[H[2J


[24;1H[?1049l
[?1l>[?1049h[1;24r(B[m[4l[?7h[H[2J



[24;1H[?1049l
[?1l>[?1049h[1;24r(B[m[4l[?7h[H[2J[6d[24;1H[?1049l
[?1l>[?1049h[1;24r(B[m[4l[?7h[H[2J[7d[24;1H[?1049l
[?1l>[?1049h[1;24r(B[m[4l[?7h[H[2J[8d[24;1H[?1049l
[?1l>[?1049h[1;24r(B[m[4l[?7h[H[2J[9d[24;1H[?1049l
[?1l>[?1049h[1;24r(B[m[4l[?7h[H[2J[10d[24;1H[?1049l
[?1l>[?1049h[1;24r(B[m[4l[?7h[H[2J[11d[24;1H[?1049l
[?1l>[?1049h[1;24r(B[m[4l[?7h[H[2J[12d[24;1H[?1049l
[?1l>[?1049h[1;24r(B[m[4l[?7h[H[2J[13d[24;1H[?1049l
[?1l>[?1049h[1;24r(B[m[4l[?7h[H[2J[14d[24;1H[?1049l
[?1l>[?1049h[1;24r(B[m[4l[?7h[H[2J[15d[24;1H[?1049l
[?1l>[?1049h[1;24r(B[m[4l[?7h[H[2J[16d[24;1H[?1049l
[?1l>[?1049h[1;24r(B[m[4l[?7h[H[2J[17d[24;1H[?1049l
[?1l>[?1049h[1;24r(B[m[4l[?7h[H[2J[18d[24;1H[?1049l
[?1l>[?1049h[1;24r(B[m[4l[?7h[H[2J[19d[24;1H[?1049l
[?1l>[?1049h[1;24r(B[m[4l[?7h[H[2J[20d[24;1H[?1049l
[?1l>[?1049h[1;24r(B[m[4l[?7h[H[2J[21d[24;1H[?1049l
[?1l>[?1049h[1;24r(B[m[4l[?7h[H[2J[22d[24;1H[?1049l
[?1l>[?1049h[1;24r(B[m[4l[?7h[H[2J[23d[24;1H[?1049l
[?1l>[?1049h[1;24r(B[m[4l[?7h[H[2J[24d[24;1H[?1049l
[?1l>[?1049h[1;24r(B[m[4l[?7h[H[2J[24d[24;1H[?1049l
[?1l>[?1049h[1;24r(B[m[4l[?7h[H[2J[24d[24;1H[?1049l
[?1l>[?1049h[1;24r(B[m[4l[?7h[H[2J[24d[24;1H[?1049l
[?1l>[?1049h[1;24r(B[m[4l[?7h[H[2J[24d[24;1H[?1049l
[?1l>[?1049h[1;24r(B[m[4l[?7h[H[2J[24d[24;1H[?1049l
[?1l>[?1049h[1;24r(B[m[4l[?7h[H[2J[24d[24;1H[?1049l
[?1l>[?1049h[1;24r(B[m[4l[?7h[H[2J[24d[24;1H[?1049l
[?1l>[?1049h[1;24r(B[m[4l[?7h[H[2J[24d[24;1H[?1049l
[?1l>[?1049h[1;24r(B[m[4l[?7h[H[2J[24d[24;1H[?1049l
[?1l>[?1049h[1;24r(B[m[4l[?7h[H[2J[24d[24;1H[?1049l
[?1l>[?1049h[1;24r(B[m[4l[?7h[H[2J[24d[24;1H[?1049l
[?1l>[?1049h[1;24r(B[m[4l[?7h[H[2J[24d[24;1H[?1049l
[?1l>[?1049h[1;24r(B[m[4l[?7h[H[2J[24d[24;1H[?1049l
[?1l>[?1049h[1;24r(B[m[4l[?7h[H[2J[24d[24;1H[?1049l
[?1l>[?1049h[1;24r(B[m[4l[?7h[H[2J[24d[24;1H[?1049l
[?1l>[?1049h[1;24r(B[m[4l[?7h[H[2J[24d[24;1H[?1049l
[?1l>[?1049h[1;24r(B[m[4l[?7h[H[2J[24d[24;1H[?1049l
[?1l>[?1049h[1;24r(B[m[4l[?7h[H[2J[24d[24;1H[?1049l
[?1l>[?1049h[1;24r(B[m[4l[?7h[H[2J[24d[24;1H[?1049l
[?1l>[?1049h[1;24r(B[m[4l[?7h[H[2J[24d[24;1H[?1049l
[?1l>[?1049h[1;24r(B[m[4l[?7h[H[2J[24d[24;1H[?1049l
[?1l>[?1049h[1;24r(B[m[4l[?7h[H[2J[24d[24;1H[?1049l
[?1l>[?1049h[1;24r(B[m[4l[?7h[H[2J[24d[24;1H[?1049l
[?1l>[?1049h[1;24r(B[m[4l[?7h[H[2J[24d[24;1H[?1049l
[?1l>[?1049h[1;24r(B[m[4l[?7h[H[2J[24d[24;1H[?1049l
[?1l>[?1049h[1;24r(B[m[4l[?7h[H[2J[24d[24;1H[?1049l
[?1l>[?1049h[1;24r(B[m[4l[?7h[H[2J[24d[24;1H[?1049l
[?1l>[?1049h[1;24r(B[m[4l[?7h[H[2J[24d[24;1H[?1049l
[?1l>[?1049h[1;24r(B[m[4l[?7h[H[2J[24d[24;1H[?1049l
[?1l>[?1049h[1;24r(B[m[4l[?7h[H[2J[24d[24;1H[?1049l
[?1l>[?1049h[1;24r(B[m[4l[?7h[H[2J[24d[24;1H[?1049l
[?1l>[?1049h[1;24r(B[m[4l[?7h[H[2J[24d[24;1H[?1049l
[?1l>[?1049h[1;24r(B[m[4l[?7h[H[2J[24d[24;1H[?1049l
[?1l>[?1049h[1;24r(B[m[4l[?7h[H[2J[24d[24;1H[?1049l
[?1l>[?1049h[1;24r(B[m[4l[?7h[H[2J[24d[24;1H[?1049l
[?1l>[?1049h[1;24r(B[m[4l[?7h[H[2J[24d[24;1H[?1049l
[?1l>[?1049h[1;24r(B[m[4l[?7h[H[2J[24d[24;1H[?1049l
[?1l>[?1049h[1;24r(B[m[4l[?7h[H[2J[24d[24;1H[?1049l
[?1l>[?1049h[1;24r(B[m[4l[?7h[H[2J[24d[24;1H[?1049l
[?1l>[?1049h[1;24r(B[m[4l[?7h[H[2J[24d[24;1H[?1049l
[?1l>[?1049h[1;24r(B[m[4l[?7h[H[2J[24d[24;1H[?1049l
[?1l>[?1049h[1;24r(B[m[4l[?7h[H[2J[24d[24;1H[?1049l
[?1l>[?1049h[1;24r(B[m[4l[?7h[H[2J[24d[24;1H[?1049l
[?1l>[?1049h[1;24r(B[m[4l[?7h[H[2J[24d[24;1H[?1049l
[?1l>[?1049h[1;24r(B[m[4l[?7h[H[2J[24d[24;1H[?1049l
[?1l>[?1049h[1;24r(B[m[4l[?7h[H[2J[24d[24;1H[?1049l
[?1l>[?1049h[1;24r(B[m[4l[?7h[H[2J[24d[24;1H[?1049l
[?1l>[?1049h[1;24r(B[m[4l[?7h[H[2J[24d[24;1H[?1049l
[?1l>[?1049h[1;24r(B[m[4l[?7h[H[2J[24d[24;1H[?1049l
[?1l>[?1049h[1;24r(B[m[4l[?7h[H[2J[24d[24;1H[?1049l
[?1l>[?1049h[1;24r(B[m[4l[?7h[H[2J[24d[24;1H[?1049l
[?1l>[?1049h[1;24r(B[m[4l[?7h[H[2J[24d[24;1H[?1049l
[?1l>[?1049h[1;24r(B[m[4l[?7h[H[2J[24d[24;1H[?1049l
[?1l>[?1049h[1;24r(B[m[4l[?7h[H[2J[24d[24;1H[?1049l
[?1l>[?1049h[1;24r(B[m[4l[?7h[H[2J[24d[24;1H[?1049l
[?1l>[?1049h[1;24r(B[m[4l[?7h[H[2J[24d[24;1H[?1049l
[?1l>[?1049h[1;24r(B[m[4l[?7h[H[2J[24d[24;1H[?1049l
[?1l>[?1049h[1;24r(B[m[4l[?7h[H[2J[24d[24;1H[?1049l
[?1l>[?1049h[1;24r(B[m[4l[?7h[H[2J[24d[24;1H[?1049l
[?1l>[?1049h[1;24r(B[m[4l[?7h[H[2J[24d[24;1H[?1049l
[?1l>[?1049h[1;24r(B[m[4l[?7h[H[2J[24d[24;1H[?1049l
[?1l>[?1049h[1;24r(B[m[4l[?7h[H[2J[24d[24;1H[?1049l
[?1l>[?1049h[1;24r(B[m[4l[?7h[H[2J[24d[24;1H[?1049l
[?1l>[?1049h[1;24r(B[m[4l[?7h[H[2J[24d[24;1H[?1049l
[?1l>[?1049h[1;24r(B[m[4l[?7h[H[2J[24d[24;1H[?1049l
[?1l>[?1049h[1;24r(B[m[4l[?7h[H[2J[24d[24;1H[?1049l
[?1l>[?1049h[1;24r(B[m[4l[?7h[H[2J[24d[24;1H[?1049l
[?1l>[?1049h[1;24r(B[m[4l[?7h[H[2J[24d[24;1H[?1049l
[?1l>[?1049h[1;24r(B[m[4l[?7h[H[2J[24d[24;1H[?1049l
[?1l>[?1049h[1;24r(B[m[4l[?7h[H[2J[24d[24;1H[?1049l
[?1l>[?1049h[1;24r(B[m[4l[?7h[H[2J[24d[24;1H[?1049l
[?1l>[?1049h[1;24r(B[m[4l[?7h[H[2J[24d[24;1H[?1049l
[?1l>[?1049h[1;24r(B[m[4l[?7h[H[2J[24d[24;1H[?1049l
[?1l>[?1049h[1;24r(B[m[4l[?7h[H[2J[24d[24;1H[?1049l
[?1l>[?1049h[1;24r(B[m[4l[?7h[H[2J[24d[24;1H[?1049l
[?1l>[?1049h[1;24r(B[m[4l[?7h[H[2J[24d[24;1H[?1049l
[?1l>[?1049h[1;24r(B[m[4l[?7h[H[2J[24d[24;1H[?1049l
[?1l>[?1049h[1;24r(B[m[4l[?7h[H[2J[24d[24;1H[?1049l
[?1l>[?1049h[1;24r(B[m[4l[?7h[H[2J[24d[24;1H[?1049l
[?1l>[?1049h[1;24r(B[m[4l[?7h[H[2J[24d[24;1H[?1049l
[?1l>[?1049h[1;24r(B[m[4l[?7h[H[2J[24d[24;1H[?1049l
[?1l>[?1049h[1;24r(B[m[4l[?7h[H[2J[24d[24;1H[?1049l
[?1l>[?1049h[1;24r(B[m[4l[?7h[H[2J[24d[24;1H[?1049l
[?1l>[?1049h[1;24r(B[m[4l[?7h[H[2J[24d[24;1H[?1049l
[?1l>[?1049h[1;24r(B[m[4l[?7h[H[2J[24d[24;1H[?1049l
[?1l>[?1049h[1;24r(B[m[4l[?7h[H[2J[24d[24;1H[?1049l
[?1l>[?1049h[1;24r(B[m[4l[?7h[H[2J[24d[24;1H[?1049l
[?1l>[?1049h[1;24r(B[m[4l[?7h[H[2J[24d[24;1H[?1049l
[?1l>[?1049h[1;24r(B[m[4l[?7h[H[2J[24d[24;1H[?1049l
[?1l>[?1049h[1;24r(B[m[4l[?7h[H[2J[24d[24;1H[?1049l
[?1l>[?1049h[1;24r(B[m[4l[?7h[H[2J[24d[24;1H[?1049l
[?1l>[?1049h[1;24r(B[m[4l[?7h[H[2J[24d[24;1H[?1049l
[?1l>[?1049h[1;24r(B[m[4l[?7h[H[2J[24d[24;1H[?1049l
[?1l>[?1049h[1;24r(B[m[4l[?7h[H[2J[24d[24;1H[?1049l
[?1l>[?1049h[1;24r(B[m[4l[?7h[H[2J[24d[24;1H[?1049l
[?1l>[?1049h[1;24r(B[m[4l[?7h[H[2J[24d[24;1H[?1049l
[?1l>[?1049h[1;24r(B[m[4l[?7h[H[2J[24d[24;1H[?1049l
[?1l>[?1049h[1;24r(B[m[4l[?7h[H[2J[24d[24;1H[?1049l
[?1l>[?1049h[1;24r(B[m[4l[?7h[H[2J[24d[24;1H[?1049l
[?1l>[?1049h[1;24r(B[m[4l[?7h[H[2J[24d[24;1H[?1049l
[?1l>[?1049h[1;24r(B[m[4l[?7h[H[2J[24d[24;1H[?1049l
[?1l>[?1049h[1;24r(B[m[4l[?7h[H[2J[24d[24;1H[?1049l
[?1l>[?1049h[1;24r(B[m[4l[?7h[H[2J[24d[24;1H[?1049l
[?1l>[?1049h[1;24r(B[m[4l[?7h[H[2J[24d[24;1H[?1049l
[?1l>[?1049h[1;24r(B[m[4l[?7h[H[2J[24d[24;1H[?1049l
[?1l>[?1049h[1;24r(B[m[4l[?7h[H[2J[24d[24;1H[?1049l
[?1l>[?1049h[1;24r(B[m[4l[?7h[H[2J[24d[24;1H[?1049l
[?1l>[?1049h[1;24r(B[m[4l[?7h[H[2J[24d[24;1H[?1049l
[?1l>[?1049h[1;24r(B[m[4l[?7h[H[2J[24d[24;1H[?1049l
[?1l>[?1049h[1;24r(B[m[4l[?7h[H[2J[24d[24;1H[?1049l
[?1l>[?1049h[1;24r(B[m[4l[?7h[H[2J[24d[24;1H[?1049l
[?1l>[?1049h[1;24r(B[m[4l[?7h[H[2J[24d[24;1H[?1049l
[?1l>[?1049h[1;24r(B[m[4l[?7h[H[2J[24d[24;1H[?1049l
[?1l>[?1049h[1;24r(B[m[4l[?7h[H[2J[24d[24;1H[?1049l
[?1l>[?1049h[1;24r(B[m[4l[?7h[H[2J[24d[24;1H[?1049l
[?1l>[?1049h[1;24r(B[m[4l[?7h[H[2J[24d[24;1H[?1049l
[?1l>[?1049h[1;24r(B[m[4l[?7h[H[2J[24d[24;1H[?1049l
[?1l>[?1049h[1;24r(B[m[4l[?7h[H[2J[24d[24;1H[?1049l
[?1l>[?1049h[1;24r(B[m[4l[?7h[H[2J[24d[24;1H[?1049l
[?1l>[?1049h[1;24r(B[m[4l[?7h[H[2J[24d[24;1H[?1049l
[?1l>[?1049h[1;24r(B[m[4l[?7h[H[2J[24d[24;1H[?1049l
[?1l>[?1049h[1;24r(B[m[4l[?7h[H[2J[24d[24;1H[?1049l
[?1l>[?1049h[1;24r(B[m[4l[?7h[H[2J[24d[24;1H[?1049l
[?1l>[?1049h[1;24r(B[m[4l[?7h[H[2J[24d[24;1H[?1049l
[?1l>[?1049h[1;24r(B[m[4l[?7h[H[2J[24d[24;1H[?1049l
[?1l>[?1049h[1;24r(B[m[4l[?7h[H[2J[24d[24;1H[?1049l
[?1l>[?1049h[1;24r(B[m[4l[?7h[H[2J[24d[24;1H[?1049l
[?1l>[?1049h[1;24r(B[m[4l[?7h[H[2J[24d[24;1H[?1049l
[?1l>[?1049h[1;24r(B[m[4l[?7h[H[2J[24d[24;1H[?1049l
[?1l>[?1049h[1;24r(B[m[4l[?7h[H[2J[24d[24;1H[?1049l
[?1l>[?1049h[1;24r(B[m[4l[?7h[H[2J[24d[24;1H[?1049l
[?1l>[?1049h[1;24r(B[m[4l[?7h[H[2J[24d[24;1H[?1049l
[?1l>[?1049h[1;24r(B[m[4l[?7h[H[2J[24d[24;1H[?1049l
[?1l>[?1049h[1;24r(B[m[4l[?7h[H[2J[24d[24;1H[?1049l
[?1l>[?1049h[1;24r(B[m[4l[?7h[H[2J[24d[24;1H[?1049l
[?1l>[?1049h[1;24r(B[m[4l[?7h[H[2J[24d[24;1H[?1049l
[?1l>[?1049h[1;24r(B[m[4l[?7h[H[2J[24d[24;1H[?1049l
[?1l>[?1049h[1;24r(B[m[4l[?7h[H[2J[24d[24;1H[?1049l
[?1l>[?1049h[1;24r(B[m[4l[?7h[H[2J[24d[24;1H[?1049l
[?1l>[?1049h[1;24r(B[m[4l[?7h[H[2J[24d[24;1H[?1049l
[?1l>[?1049h[1;24r(B[m[4l[?7h[H[2J[24d[24;1H[?1049l
[?1l>[?1049h[1;24r(B[m[4l[?7h[H[2J[24d[24;1H[?1049l
[?1l>[?1049h[1;24r(B[m[4l[?7h[H[2J[24d[24;1H[?1049l
[?1l>[?1049h[1;24r(B[m[4l[?7h[H[2J[24d[24;1H[?1049l
[?1l>[?1049h[1;24r(B[m[4l[?7h[H[2J[24d[24;1H[?1049l
[?1l>[?1049h[1;24r(B[m[4l[?7h[H[2J[24d[24;1H[?1049l
[?1l>[?1049h[1;24r(B[m[4l[?7h[H[2J[24d[24;1H[?1049l
[?1l>[?1049h[1;24r(B[m[4l[?7h[H[2J[24d[24;1H[?1049l
[?1l>[?1049h[1;24r(B[m[4l[?7h[H[2J[24d[24;1H[?1049l
[?1l>[?1049h[1;24r(B[m[4l[?7h[H[2J[24d[24;1H[?1049l
[?1l>[?1049h[1;24r(B[m[4l[?7h[H[2J[24d[24;1H[?1049l
[?1l>[?1049h[1;24r(B[m[4l[?7h[H[2J[24d[24;1H[?1049l
[?1l>[?1049h[1;24r(B[m[4l[?7h[H[2J[24d[24;1H[?1049l
[?1l>[?1049h[1;24r(B[m[4l[?7h[H[2J[24d[24;1H[?1049l
[?1l>[?1049h[1;24r(B[m[4l[?7h[H[2J[24d[24;1H[?1049l
[?1l>[?1049h[1;24r(B[m[4l[?7h[H[2J[24d[24;1H[?1049l
[?1l>[?1049h[1;24r(B[m[4l[?7h[H[2J[24d[24;1H[?1049l
[?1l>[?1049h[1;24r(B[m[4l[?7h[H[2J[24d[24;1H[?1049l
[?1l>[?1049h[1;24r(B[m[4l[?7h[H[2J[24d[24;1H[?1049l
[?1l>[?1049h[1;24r(B[m[4l[?7h[H[2J[24d[24;1H[?1049l
[?1l>[?1049h[1;24r(B[m[4l[?7h[H[2J[24d[24;1H[?1049l
[?1l>[?1049h[1;24r(B[m[4l[?7h[H[2J[24d[24;1H[?1049l
[?1l>[?1049h[1;24r(B[m[4l[?7h[H[2J[24d[24;1H[?1049l
[?1l>[?1049h[1;24r(B[m[4l[?7h[H[2J[24d[24;1H[?1049l
[?1l>[?1049h[1;24r(B[m[4l[?7h[H[2J[24d[24;1H[?1049l
[?1l>[?1049h[1;24r(B[m[4l[?7h[H[2J[24d[24;1H[?1049l
[?1l>[?1049h[1;24r(B[m[4l[?7h[H[2J[24d[24;1H[?1049l
[?1l>[?1049h[1;24r(B[m[4l[?7h[H[2J[24d[24;1H[?1049l
[?1l>[?1049h[1;24r(B[m[4l[?7h[H[2J[24d[24;1H[?1049l
[?1l>[?1049h[1;24r(B[m[4l[?7h[H[2J[24d[24;1H[?1049l
[?1l>[?1049h[1;24r(B[m[4l[?7h[H[2J[24d[24;1H[?1049l
[?1l>[?1049h[1;24r(B[m[4l[?7h[H[2J[24d[24;1H[?1049l
[?1l>[?1049h[1;24r(B[m[4l[?7h[H[2J[24d[24;1H[?1049l
[?1l>[?1049h[1;24r(B[m[4l[?7h[H[2J[24d[24;1H[?1049l
[?1l>[?1049h[1;24r(B[m[4l[?7h[H[2J[24d[24;1H[?1049l
[?1l>[?1049h[1;24r(B[m[4l[?7h[H[2J[24d[24;1H[?1049l
[?1l>[?1049h[1;24r(B[m[4l[?7h[H[2J[24d[24;1H[?1049l
[?1l>[?1049h[1;24r(B[m[4l[?7h[H[2J[24d[24;1H[?1049l
[?1l>[?1049h[1;24r(B[m[4l[?7h[H[2J[24d[24;1H[?1049l
[?1l>[?1049h[1;24r(B[m[4l[?7h[H[2J[24d[24;1H[?1049l
[?1l>[?1049h[1;24r(B[m[4l[?7h[H[2J[24d[24;1H[?1049l
[?1l>[?1049h[1;24r(B[m[4l[?7h[H[2J[24d[24;1H[?1049l
[?1l>[?1049h[1;24r(B[m[4l[?7h[H[2J[24d[24;1H[?1049l
[?1l>[?1049h[1;24r(B[m[4l[?7h[H[2J[24d[24;1H[?1049l
[?1l>[?1049h[1;24r(B[m[4l[?7h[H[2J[24d[24;1H[?1049l
[?1l>[?1049h[1;24r(B[m[4l[?7h[H[2J[24d[24;1H[?1049l
[?1l>[?1049h[1;24r(B[m[4l[?7h[H[2J[24d[24;1H[?1049l
[?1l>[?1049h[1;24r(B[m[4l[?7h[H[2J[24d[24;1H[?1049l
[?1l>[?1049h[1;24r(B[m[4l[?7h[H[2J[24d[24;1H[?1049l
[?1l>[?1049h[1;24r(B[m[4l[?7h[H[2J[24d[24;1H[?1049l
[?1l>[?1049h[1;24r(B[m[4l[?7h[H[2J[24d[24;1H[?1049l
[?1l>[?1049h[1;24r(B[m[4l[?7h[H[2J[24d[24;1H[?1049l
[?1l>[?1049h[1;24r(B[m[4l[?7h[H[2J[24d[24;1H[?1049l
[?1l>[?1049h[1;24r(B[m[4l[?7h[H[2J[24d[24;1H[?1049l
[?1l>[?1049h[1;24r(B[m[4l[?7h[H[2J[24d[24;1H[?1049l
[?1l>[?1049h[1;24r(B[m[4l[?7h[H[2J[24d[24;1H[?1049l
[?1l>[?1049h[1;24r(B[m[4l[?7h[H[2J[24d[24;1H[?1049l
[?1l>[?1049h[1;24r(B[m[4l[?7h[H[2J[24d[24;1H[?1049l
[?1l>[?1049h[1;24r(B[m[4l[?7h[H[2J[24d[24;1H[?1049l
[?1l>[?1049h[1;24r(B[m[4l[?7h[H[2J[24d[24;1H[?1049l
[?1l>[?1049h[1;24r(B[m[4l[?7h[H[2J[24d[24;1H[?1049l
[?1l>[?1049h[1;24r(B[m[4l[?7h[H[2J[24d[24;1H[?1049l
[?1l>[?1049h[1;24r(B[m[4l[?7h[H[2J[24d[24;1H[?1049l
[?1l>[?1049h[1;24r(B[m[4l[?7h[H[2J[24d[24;1H[?1049l
[?1l>[?1049h[1;24r(B[m[4l[?7h[H[2J[24d[24;1H[?1049l
[?1l>[?1049h[1;24r(B[m[4l[?7h[H[2J[24d[24;1H[?1049l
[?1l>[?1049h[1;24r(B[m[4l[?7h[H[2J[24d[24;1H[?1049l
[?1l>[?1049h[1;24r(B[m[4l[?7h[H[2J[24d[24;1H[?1049l
[?1l>[?1049h[1;24r(B[m[4l[?7h[H[2J[24d[24;1H[?1049l
[?1l>[?1049h[1;24r(B[m[4l[?7h[H[2J[24d[24;1H[?1049l
[?1l>[?1049h[1;24r(B[m[4l[?7h[H[2J[24d[24;1H[?1049l
[?1l>[?1049h[1;24r(B[m[4l[?7h[H[2J[24d[24;1H[?1049l
[?1l>[?1049h[1;24r(B[m[4l[?7h[H[2J[24d[24;1H[?1049l
[?1l>[?1049h[1;24r(B[m[4l[?7h[H[2J[24d[24;1H[?1049l
[?1l>[?1049h[1;24r(B[m[4l[?7h[H[2J[24d[24;1H[?1049l
[?1l>[?1049h[1;24r(B[m[4l[?7h[H[2J[24d[24;1H[?1049l
[?1l>[?1049h[1;24r(B[m[4l[?7h[H[2J[24d[24;1H[?1049l
[?1l>[?1049h[1;24r(B[m[4l[?7h[H[2J[24d[24;1H[?1049l
[?1l>[?1049h[1;24r(B[m[4l[?7h[H[2J[24d[24;1H[?1049l
[?1l>[?1049h[1;24r(B[m[4l[?7h[H[2J[24d[24;1H[?1049l
[?1l>[?1049h[1;24r(B[m[4l[?7h[H[2J[24d[24;1H[?1049l
[?1l>[?1049h[1;24r(B[m[4l[?7h[H[2J[24d[24;1H[?1049l
[?1l>[?1049h[1;24r(B[m[4l[?7h[H[2J[24d[24;1H[?1049l
[?1l>[?1049h[1;24r(B[m[4l[?7h[H[2J[24d[24;1H[?1049l
[?1l>[?1049h[1;24r(B[m[4l[?7h[H[2J[24d[24;1H[?1049l
[?1l>
maxits=2000
convits=200
dampfact=0.900000
number of data points: 293
Preferences: 0.387706

Number of identified clusters: 14
Net similarity:
	 203.158426
Sum of data point-to-exemplar similarities:
	 197.730536
Sum of exemplar preferences:
	 5.427890
Number of iterations: 246

Start:	May 06, 2013, Monday, 16:29:14 CEST
End:	May 06, 2013, Monday, 16:29:16 CEST

For more information, please read the files under "/local/wiwie/ClustEval/repository/results/05_06_2013-15_52_16_tcga/clusters/APcluster_1_tcga.310.results/" ...

