-----------------------------------
Running ... TransClust v1.0
Mon May 06 19:27:30 CEST 2013
-----------------------------------

Clustering Mode: cluster iterativ

Threshold range: 0.5310219062667629 to 0.5310219062667629
Stepsize: 0.01

calculating clusters for threshold 0.5310219062667629

fmeasure: 0.9859298725863963
cluster distribution: 208:1, 67:1, 16:1, 1:2, 

