-----------------------------------
Running ... TransClust v1.0
Mon May 06 20:23:54 CEST 2013
-----------------------------------

Clustering Mode: cluster iterativ

Threshold range: 0.5310223807194945 to 0.5310223807194945
Stepsize: 0.01

calculating clusters for threshold 0.5310223807194945

fmeasure: 0.9859298725863963
cluster distribution: 208:1, 67:1, 16:1, 1:2, 

