-----------------------------------
Running ... TransClust v1.0
Mon May 06 19:00:46 CEST 2013
-----------------------------------

Clustering Mode: cluster iterativ

Threshold range: 0.5310236808432126 to 0.5310236808432126
Stepsize: 0.01

calculating clusters for threshold 0.5310236808432126

fmeasure: 0.9859298725863963
cluster distribution: 208:1, 67:1, 16:1, 1:2, 

