-----------------------------------
Running ... TransClust v1.0
Mon May 06 17:15:28 CEST 2013
-----------------------------------

Clustering Mode: cluster iterativ

Threshold range: 0.5291868687426444 to 0.5291868687426444
Stepsize: 0.01

calculating clusters for threshold 0.5291868687426444

fmeasure: 0.9783153309806389
cluster distribution: 210:1, 67:1, 14:1, 1:2, 

