-----------------------------------
Running ... TransClust v1.0
Mon May 06 17:13:41 CEST 2013
-----------------------------------

Clustering Mode: cluster iterativ

Threshold range: 0.5352808001210305 to 0.5352808001210305
Stepsize: 0.01

calculating clusters for threshold 0.5352808001210305

fmeasure: 0.9824674197786942
cluster distribution: 206:1, 67:1, 16:1, 3:1, 1:1, 

